{
    "WithEducation": {
        "1": "w-education/age-witheducation-wmapbetas.nii.gz",
        "2": "w-education/sex-witheducation-wmapbetas.nii.gz",
        "3": "w-education/hand-witheducation-wmapbetas.nii.gz",
        "4": "w-education/tiv-witheducation-wmapbetas.nii.gz",
        "5": "w-education/1dot5T-witheducation-wmapbetas.nii.gz",
        "6": "w-education/3T-witheducation-wmapbetas.nii.gz",
        "7": "w-education/prisma-witheducation-wmapbetas.nii.gz",
        "8": "w-education/education-witheducation-wmapbetas.nii.gz",
        "intercept": "w-education/intercept-witheducation.nii.gz",
        "sdresiduals": "w-education/sdresiduals-witheducation.nii.gz"
    },
    "WithoutEducation": {
        "1": "wo-education/age-withouteducation-wmapbetas.nii.gz",
        "2": "wo-education/sex-withouteducation-wmapbetas.nii.gz",
        "3": "wo-education/hand-withouteducation-wmapbetas.nii.gz",
        "4": "wo-education/tiv-withouteducation-wmapbetas.nii.gz",
        "5": "wo-education/1dot5T-withouteducation-wmapbetas.nii.gz",
        "6": "wo-education/3T-withouteducation-wmapbetas.nii.gz",
        "7": "wo-education/prisma-withouteducation-wmapbetas.nii.gz",
        "intercept": "wo-education/intercept-withouteducation.nii.gz",
        "sdresiduals": "wo-education/sdresiduals-withouteducation.nii.gz"
    },
    "test": {
        "1": "test/age-withouteducation-wmapbetas.nii.gz",
        "2": "test/sex-withouteducation-wmapbetas.nii.gz",
        "3": "test/hand-withouteducation-wmapbetas.nii.gz",
        "4": "test/tiv-withouteducation-wmapbetas.nii.gz",
        "5": "test/1dot5T-withouteducation-wmapbetas.nii.gz",
        "6": "test/3T-withouteducation-wmapbetas.nii.gz",
        "7": "test/prisma-withouteducation-wmapbetas.nii.gz",
        "8": "test/education-withouteducation-wmapbetas.nii.gz",
        "intercept": "test/intercept-withouteducation.nii.gz",
        "sdresiduals": "test/sdresiduals-withouteducation.nii.gz"
    }
}